{
    "page": 1,
    "total_results": 411509,
    "total_pages": 20576,
    "results": [
        {
            "vote_count": 21647,
            "id": 27205,
            "video": false,
            "vote_average": 8.3,
            "title": "Inception",
            "popularity": 36.477,
            "poster_path": "/qmDpIHrmpJINaRKAfWQfftjCdyi.jpg",
            "original_language": "en",
            "original_title": "Inception",
            "genre_ids": [
                28,
                878,
                12
            ],
            "backdrop_path": "/s2bT29y0ngXxxu2IA8AOzzXTRhd.jpg",
            "adult": false,
            "overview": "Cobb, a skilled thief who commits corporate espionage by infiltrating the subconscious of his targets is offered a chance to regain his old life as payment for a task considered to be impossible: \"inception\", the implantation of another person's idea into a target's subconscious.",
            "release_date": "2010-07-15"
        },
        {
            "vote_count": 19673,
            "id": 293660,
            "video": false,
            "vote_average": 7.6,
            "title": "Deadpool",
            "popularity": 48.048,
            "poster_path": "/inVq3FRqcYIRl2la8iZikYYxFNR.jpg",
            "original_language": "en",
            "original_title": "Deadpool",
            "genre_ids": [
                28,
                12,
                35
            ],
            "backdrop_path": "/n1y094tVDFATSzkTnFxoGZ1qNsG.jpg",
            "adult": false,
            "overview": "Deadpool tells the origin story of former Special Forces operative turned mercenary Wade Wilson, who after being subjected to a rogue experiment that leaves him with accelerated healing powers, adopts the alter ego Deadpool. Armed with his new abilities and a dark, twisted sense of humor, Deadpool hunts down the man who nearly destroyed his life.",
            "release_date": "2016-02-09"
        },
        {
            "vote_count": 18827,
            "id": 24428,
            "video": false,
            "vote_average": 7.6,
            "title": "The Avengers",
            "popularity": 72.357,
            "poster_path": "/cezWGskPY5x7GaglTTRN4Fugfb8.jpg",
            "original_language": "en",
            "original_title": "The Avengers",
            "genre_ids": [
                878,
                28,
                12
            ],
            "backdrop_path": "/hbn46fQaRmlpBuUrEiFqv0GDL6Y.jpg",
            "adult": false,
            "overview": "When an unexpected enemy emerges and threatens global safety and security, Nick Fury, director of the international peacekeeping agency known as S.H.I.E.L.D., finds himself in need of a team to pull the world back from the brink of disaster. Spanning the globe, a daring recruitment effort begins!",
            "release_date": "2012-04-25"
        },
        {
            "vote_count": 18449,
            "id": 155,
            "video": false,
            "vote_average": 8.4,
            "title": "The Dark Knight",
            "popularity": 39.212,
            "poster_path": "/1hRoyzDtpgMU7Dz4JF22RANzQO7.jpg",
            "original_language": "en",
            "original_title": "The Dark Knight",
            "genre_ids": [
                18,
                28,
                80,
                53
            ],
            "backdrop_path": "/hqkIcbrOHL86UncnHIsHVcVmzue.jpg",
            "adult": false,
            "overview": "Batman raises the stakes in his war on crime. With the help of Lt. Jim Gordon and District Attorney Harvey Dent, Batman sets out to dismantle the remaining criminal organizations that plague the streets. The partnership proves to be effective, but they soon find themselves prey to a reign of chaos unleashed by a rising criminal mastermind known to the terrified citizens of Gotham as the Joker.",
            "release_date": "2008-07-16"
        },
        {
            "vote_count": 18236,
            "id": 19995,
            "video": false,
            "vote_average": 7.4,
            "title": "Avatar",
            "popularity": 30.208,
            "poster_path": "/kmcqlZGaSh20zpTbuoF0Cdn07dT.jpg",
            "original_language": "en",
            "original_title": "Avatar",
            "genre_ids": [
                28,
                12,
                14,
                878
            ],
            "backdrop_path": "/aHcth2AXzZSjhX7JYh7ie73YVNc.jpg",
            "adult": false,
            "overview": "In the 22nd century, a paraplegic Marine is dispatched to the moon Pandora on a unique mission, but becomes torn between following orders and protecting an alien civilization.",
            "release_date": "2009-12-10"
        },
        {
            "vote_count": 18108,
            "id": 157336,
            "video": false,
            "vote_average": 8.2,
            "title": "Interstellar",
            "popularity": 40.489,
            "poster_path": "/nBNZadXqJSdt05SHLqgT0HuC5Gm.jpg",
            "original_language": "en",
            "original_title": "Interstellar",
            "genre_ids": [
                12,
                18,
                878
            ],
            "backdrop_path": "/xu9zaAevzQ5nnrsXN6JcahLnG4i.jpg",
            "adult": false,
            "overview": "Interstellar chronicles the adventures of a group of explorers who make use of a newly discovered wormhole to surpass the limitations on human space travel and conquer the vast distances involved in an interstellar voyage.",
            "release_date": "2014-11-05"
        },
        {
            "vote_count": 17294,
            "id": 118340,
            "video": false,
            "vote_average": 7.9,
            "title": "Guardians of the Galaxy",
            "popularity": 66.551,
            "poster_path": "/y31QB9kn3XSudA15tV7UWQ9XLuW.jpg",
            "original_language": "en",
            "original_title": "Guardians of the Galaxy",
            "genre_ids": [
                28,
                878,
                12
            ],
            "backdrop_path": "/bHarw8xrmQeqf3t8HpuMY7zoK4x.jpg",
            "adult": false,
            "overview": "Light years from Earth, 26 years after being abducted, Peter Quill finds himself the prime target of a manhunt after discovering an orb wanted by Ronan the Accuser.",
            "release_date": "2014-07-30"
        },
        {
            "vote_count": 15897,
            "id": 550,
            "video": false,
            "vote_average": 8.4,
            "title": "Fight Club",
            "popularity": 30.213,
            "poster_path": "/adw6Lq9FiC9zjYEpOqfq03ituwp.jpg",
            "original_language": "en",
            "original_title": "Fight Club",
            "genre_ids": [
                18
            ],
            "backdrop_path": "/52AfXWuXCHn3UjD17rBruA9f5qb.jpg",
            "adult": false,
            "overview": "A ticking-time-bomb insomniac and a slippery soap salesman channel primal male aggression into a shocking new form of therapy. Their concept catches on, with underground \"fight clubs\" forming in every town, until an eccentric gets in the way and ignites an out-of-control spiral toward oblivion.",
            "release_date": "1999-10-15"
        },
        {
            "vote_count": 15312,
            "id": 68718,
            "video": false,
            "vote_average": 8,
            "title": "Django Unchained",
            "popularity": 25.085,
            "poster_path": "/5WJnxuw41sddupf8cwOxYftuvJG.jpg",
            "original_language": "en",
            "original_title": "Django Unchained",
            "genre_ids": [
                18,
                37
            ],
            "backdrop_path": "/qUcmEqnzIwlwZxSyTf3WliSfAjJ.jpg",
            "adult": false,
            "overview": "With the help of a German bounty hunter, a freed slave sets out to rescue his wife from a brutal Mississippi plantation owner.",
            "release_date": "2012-12-25"
        },
        {
            "vote_count": 15006,
            "id": 1726,
            "video": false,
            "vote_average": 7.5,
            "title": "Iron Man",
            "popularity": 39.455,
            "poster_path": "/848chlIWVT41VtAAgyh9bWymAYb.jpg",
            "original_language": "en",
            "original_title": "Iron Man",
            "genre_ids": [
                28,
                878,
                12
            ],
            "backdrop_path": "/ZQixhAZx6fH1VNafFXsqa1B8QI.jpg",
            "adult": false,
            "overview": "After being held captive in an Afghan cave, billionaire engineer Tony Stark creates a unique weaponized suit of armor to fight evil.",
            "release_date": "2008-04-30"
        },
        {
            "vote_count": 14802,
            "id": 680,
            "video": false,
            "vote_average": 8.4,
            "title": "Pulp Fiction",
            "popularity": 28.799,
            "poster_path": "/dM2w364MScsjFf8pfMbaWUcWrR.jpg",
            "original_language": "en",
            "original_title": "Pulp Fiction",
            "genre_ids": [
                53,
                80
            ],
            "backdrop_path": "/4cDFJr4HnXN5AdPw4AKrmLlMWdO.jpg",
            "adult": false,
            "overview": "A burger-loving hit man, his philosophical partner, a drug-addled gangster's moll and a washed-up boxer converge in this sprawling, comedic crime caper. Their adventures unfurl in three stories that ingeniously trip back and forth in time.",
            "release_date": "1994-09-10"
        },
        {
            "vote_count": 14345,
            "id": 13,
            "video": false,
            "vote_average": 8.4,
            "title": "Forrest Gump",
            "popularity": 23.083,
            "poster_path": "/yE5d3BUhE8hCnkMUJOo1QDoOGNz.jpg",
            "original_language": "en",
            "original_title": "Forrest Gump",
            "genre_ids": [
                35,
                18,
                10749
            ],
            "backdrop_path": "/wMgbnUVS9wbRGAdki8fqxKU1O0N.jpg",
            "adult": false,
            "overview": "A man with a low IQ has accomplished great things in his life and been present during significant historic events—in each case, far exceeding what anyone imagined he could do. But despite all he has achieved, his one true love eludes him.",
            "release_date": "1994-07-06"
        },
        {
            "vote_count": 14264,
            "id": 70160,
            "video": false,
            "vote_average": 7.1,
            "title": "The Hunger Games",
            "popularity": 16.329,
            "poster_path": "/iLJdwmzrHFjFwI5lvYAT1gcpRuA.jpg",
            "original_language": "en",
            "original_title": "The Hunger Games",
            "genre_ids": [
                878,
                12,
                14
            ],
            "backdrop_path": "/1LTLrl06uII4w2BTpnQnmWwrKi.jpg",
            "adult": false,
            "overview": "Every year in the ruins of what was once North America, the nation of Panem forces each of its twelve districts to send a teenage boy and girl to compete in the Hunger Games.  Part twisted entertainment, part government intimidation tactic, the Hunger Games are a nationally televised event in which “Tributes” must fight with one another until one survivor remains.  Pitted against highly-trained Tributes who have prepared for these Games their entire lives, Katniss is forced to rely upon her sharp instincts as well as the mentorship of drunken former victor Haymitch Abernathy.  If she’s ever to return home to District 12, Katniss must make impossible choices in the arena that weigh survival against humanity and life against love. The world will be watching.",
            "release_date": "2012-03-12"
        },
        {
            "vote_count": 14115,
            "id": 76341,
            "video": false,
            "vote_average": 7.4,
            "title": "Mad Max: Fury Road",
            "popularity": 31.449,
            "poster_path": "/kqjL17yufvn9OVLyXYpvtyrFfak.jpg",
            "original_language": "en",
            "original_title": "Mad Max: Fury Road",
            "genre_ids": [
                28,
                12,
                878
            ],
            "backdrop_path": "/phszHPFVhPHhMZgo0fWTKBDQsJA.jpg",
            "adult": false,
            "overview": "An apocalyptic story set in the furthest reaches of our planet, in a stark desert landscape where humanity is broken, and most everyone is crazed fighting for the necessities of life. Within this world exist two rebels on the run who just might be able to restore order. There's Max, a man of action and a man of few words, who seeks peace of mind following the loss of his wife and child in the aftermath of the chaos. And Furiosa, a woman of action and a woman who believes her path to survival may be achieved if she can make it across the desert back to her childhood homeland.",
            "release_date": "2015-05-13"
        },
        {
            "vote_count": 14093,
            "id": 120,
            "video": false,
            "vote_average": 8.3,
            "title": "The Lord of the Rings: The Fellowship of the Ring",
            "popularity": 58.388,
            "poster_path": "/56zTpe2xvaA4alU51sRWPoKPYZy.jpg",
            "original_language": "en",
            "original_title": "The Lord of the Rings: The Fellowship of the Ring",
            "genre_ids": [
                12,
                14,
                28
            ],
            "backdrop_path": "/pIUvQ9Ed35wlWhY2oU6OmwEsmzG.jpg",
            "adult": false,
            "overview": "Young hobbit Frodo Baggins, after inheriting a mysterious ring from his uncle Bilbo, must leave his home in order to keep it from falling into the hands of its evil creator. Along the way, a fellowship is formed to protect the ringbearer and make sure that the ring arrives at its final destination: Mt. Doom, the only place where it can be destroyed.",
            "release_date": "2001-12-18"
        },
        {
            "vote_count": 14019,
            "id": 603,
            "video": false,
            "vote_average": 8.1,
            "title": "The Matrix",
            "popularity": 30.053,
            "poster_path": "/hEpWvX6Bp79eLxY1kX5ZZJcme5U.jpg",
            "original_language": "en",
            "original_title": "The Matrix",
            "genre_ids": [
                28,
                878
            ],
            "backdrop_path": "/icmmSD4vTTDKOq2vvdulafOGw93.jpg",
            "adult": false,
            "overview": "Set in the 22nd century, The Matrix tells the story of a computer hacker who joins a group of underground insurgents fighting the vast and powerful computers who now rule the earth.",
            "release_date": "1999-03-30"
        },
        {
            "vote_count": 13811,
            "id": 597,
            "video": false,
            "vote_average": 7.8,
            "title": "Titanic",
            "popularity": 26.929,
            "poster_path": "/kHXEpyfl6zqn8a6YuozZUujufXf.jpg",
            "original_language": "en",
            "original_title": "Titanic",
            "genre_ids": [
                18,
                10749,
                53
            ],
            "backdrop_path": "/xqQztbT6KlPLQLlRtNHoXivEMZA.jpg",
            "adult": false,
            "overview": "101-year-old Rose DeWitt Bukater tells the story of her life aboard the Titanic, 84 years later. A young Rose boards the ship with her mother and fiancé. Meanwhile, Jack Dawson and Fabrizio De Rossi win third-class tickets aboard the ship. Rose tells the whole story from Titanic's departure through to its death—on its first and last voyage—on April 15, 1912.",
            "release_date": "1997-11-18"
        },
        {
            "vote_count": 13759,
            "id": 135397,
            "video": false,
            "vote_average": 6.6,
            "title": "Jurassic World",
            "popularity": 40.574,
            "poster_path": "/jjBgi2r5cRt36xF6iNUEhzscEcb.jpg",
            "original_language": "en",
            "original_title": "Jurassic World",
            "genre_ids": [
                28,
                12,
                878,
                53
            ],
            "backdrop_path": "/t5KONotASgVKq4N19RyhIthWOPG.jpg",
            "adult": false,
            "overview": "Twenty-two years after the events of Jurassic Park, Isla Nublar now features a fully functioning dinosaur theme park, Jurassic World, as originally envisioned by John Hammond.",
            "release_date": "2015-06-06"
        },
        {
            "vote_count": 13641,
            "id": 68721,
            "video": false,
            "vote_average": 6.9,
            "title": "Iron Man 3",
            "popularity": 36.156,
            "poster_path": "/7XiGqZE8meUv7L4720L0tIDd7gO.jpg",
            "original_language": "en",
            "original_title": "Iron Man 3",
            "genre_ids": [
                28,
                12,
                878
            ],
            "backdrop_path": "/n9X2DKItL3V0yq1q1jrk8z5UAki.jpg",
            "adult": false,
            "overview": "When Tony Stark's world is torn apart by a formidable terrorist called the Mandarin, he starts an odyssey of rebuilding and retribution.",
            "release_date": "2013-04-18"
        },
        {
            "vote_count": 13623,
            "id": 49026,
            "video": false,
            "vote_average": 7.7,
            "title": "The Dark Knight Rises",
            "popularity": 30.392,
            "poster_path": "/dEYnvnUfXrqvqeRSqvIEtmzhoA8.jpg",
            "original_language": "en",
            "original_title": "The Dark Knight Rises",
            "genre_ids": [
                28,
                80,
                18,
                53
            ],
            "backdrop_path": "/f6ljQGv7WnJuwBPty017oPWfqjx.jpg",
            "adult": false,
            "overview": "Following the death of District Attorney Harvey Dent, Batman assumes responsibility for Dent's crimes to protect the late attorney's reputation and is subsequently hunted by the Gotham City Police Department. Eight years later, Batman encounters the mysterious Selina Kyle and the villainous Bane, a new terrorist leader who overwhelms Gotham's finest. The Dark Knight resurfaces to protect a city that has branded him an enemy.",
            "release_date": "2012-07-16"
        }
    ]
}